top.vcd
$date
    Sat Jan 23 21:01:37 2021
$end
$version
    MyHDL 0.11
$end
$timescale
    1ns
$end

$scope module top $end
$var reg 1 ! clk $end
$var reg 1 " reset $end
$scope module clock0 $end
$var reg 1 ! clk $end
$upscope $end
$scope module cpu_top0 $end
$var reg 1 ! clk $end
$var reg 1 " reset $end
$var reg 32 # pc $end
$var reg 32 $ pc_addr $end
$var reg 32 % jmp_addr $end
$var reg 32 & read_addr $end
$var reg 32 ' instruction $end
$var reg 1 ( pc_sel $end
$var reg 64 ) ifid_reg $end
$scope module pc_adder $end
$var reg 1 ! clk $end
$var reg 32 # pc $end
$var reg 32 $ pc_addr $end
$var reg 1 " reset $end
$upscope $end
$scope module pc_mux $end
$var reg 32 % jmp_addr $end
$var reg 32 # pc $end
$var reg 32 $ pc_addr $end
$var reg 1 ( pc_sel $end
$var reg 1 " reset $end
$upscope $end
$scope module pc_assign $end
$var reg 32 # pc $end
$var reg 32 & read_addr $end
$var reg 1 " reset $end
$upscope $end
$scope module inst_mem $end
$var reg 32 ' instruction $end
$var reg 32 & read_addr $end
$var reg 1 " reset $end
$scope module inst_ram $end
$var reg 32 * inst_ram(0) $end
$var reg 32 + inst_ram(1) $end
$var reg 32 , inst_ram(2) $end
$var reg 32 - inst_ram(3) $end
$var reg 32 . inst_ram(4) $end
$var reg 32 / inst_ram(5) $end
$var reg 32 0 inst_ram(6) $end
$var reg 32 1 inst_ram(7) $end
$var reg 32 2 inst_ram(8) $end
$var reg 32 3 inst_ram(9) $end
$var reg 32 4 inst_ram(10) $end
$var reg 32 5 inst_ram(11) $end
$var reg 32 6 inst_ram(12) $end
$var reg 32 7 inst_ram(13) $end
$var reg 32 8 inst_ram(14) $end
$var reg 32 9 inst_ram(15) $end
$var reg 32 : inst_ram(16) $end
$var reg 32 ; inst_ram(17) $end
$var reg 32 < inst_ram(18) $end
$var reg 32 = inst_ram(19) $end
$var reg 32 > inst_ram(20) $end
$var reg 32 ? inst_ram(21) $end
$var reg 32 @ inst_ram(22) $end
$var reg 32 A inst_ram(23) $end
$var reg 32 B inst_ram(24) $end
$var reg 32 C inst_ram(25) $end
$var reg 32 D inst_ram(26) $end
$var reg 32 E inst_ram(27) $end
$var reg 32 F inst_ram(28) $end
$var reg 32 G inst_ram(29) $end
$var reg 32 H inst_ram(30) $end
$var reg 32 I inst_ram(31) $end
$var reg 32 J inst_ram(32) $end
$var reg 32 K inst_ram(33) $end
$var reg 32 L inst_ram(34) $end
$var reg 32 M inst_ram(35) $end
$var reg 32 N inst_ram(36) $end
$var reg 32 O inst_ram(37) $end
$var reg 32 P inst_ram(38) $end
$var reg 32 Q inst_ram(39) $end
$var reg 32 R inst_ram(40) $end
$var reg 32 S inst_ram(41) $end
$var reg 32 T inst_ram(42) $end
$var reg 32 U inst_ram(43) $end
$var reg 32 V inst_ram(44) $end
$var reg 32 W inst_ram(45) $end
$var reg 32 X inst_ram(46) $end
$var reg 32 Y inst_ram(47) $end
$var reg 32 Z inst_ram(48) $end
$var reg 32 [ inst_ram(49) $end
$var reg 32 \ inst_ram(50) $end
$var reg 32 ] inst_ram(51) $end
$var reg 32 ^ inst_ram(52) $end
$var reg 32 _ inst_ram(53) $end
$var reg 32 ` inst_ram(54) $end
$var reg 32 a inst_ram(55) $end
$var reg 32 b inst_ram(56) $end
$var reg 32 c inst_ram(57) $end
$var reg 32 d inst_ram(58) $end
$var reg 32 e inst_ram(59) $end
$var reg 32 f inst_ram(60) $end
$var reg 32 g inst_ram(61) $end
$var reg 32 h inst_ram(62) $end
$var reg 32 i inst_ram(63) $end
$var reg 32 j inst_ram(64) $end
$var reg 32 k inst_ram(65) $end
$var reg 32 l inst_ram(66) $end
$var reg 32 m inst_ram(67) $end
$var reg 32 n inst_ram(68) $end
$var reg 32 o inst_ram(69) $end
$var reg 32 p inst_ram(70) $end
$var reg 32 q inst_ram(71) $end
$var reg 32 r inst_ram(72) $end
$var reg 32 s inst_ram(73) $end
$var reg 32 t inst_ram(74) $end
$var reg 32 u inst_ram(75) $end
$var reg 32 v inst_ram(76) $end
$var reg 32 w inst_ram(77) $end
$var reg 32 x inst_ram(78) $end
$var reg 32 y inst_ram(79) $end
$var reg 32 z inst_ram(80) $end
$var reg 32 { inst_ram(81) $end
$var reg 32 | inst_ram(82) $end
$var reg 32 } inst_ram(83) $end
$var reg 32 ~ inst_ram(84) $end
$var reg 32 "! inst_ram(85) $end
$var reg 32 "" inst_ram(86) $end
$var reg 32 "# inst_ram(87) $end
$var reg 32 "$ inst_ram(88) $end
$var reg 32 "% inst_ram(89) $end
$var reg 32 "& inst_ram(90) $end
$var reg 32 "' inst_ram(91) $end
$var reg 32 "( inst_ram(92) $end
$var reg 32 ") inst_ram(93) $end
$var reg 32 "* inst_ram(94) $end
$var reg 32 "+ inst_ram(95) $end
$var reg 32 ", inst_ram(96) $end
$var reg 32 "- inst_ram(97) $end
$var reg 32 ". inst_ram(98) $end
$var reg 32 "/ inst_ram(99) $end
$var reg 32 "0 inst_ram(100) $end
$var reg 32 "1 inst_ram(101) $end
$var reg 32 "2 inst_ram(102) $end
$var reg 32 "3 inst_ram(103) $end
$var reg 32 "4 inst_ram(104) $end
$var reg 32 "5 inst_ram(105) $end
$var reg 32 "6 inst_ram(106) $end
$var reg 32 "7 inst_ram(107) $end
$var reg 32 "8 inst_ram(108) $end
$var reg 32 "9 inst_ram(109) $end
$var reg 32 ": inst_ram(110) $end
$var reg 32 "; inst_ram(111) $end
$var reg 32 "< inst_ram(112) $end
$var reg 32 "= inst_ram(113) $end
$var reg 32 "> inst_ram(114) $end
$var reg 32 "? inst_ram(115) $end
$var reg 32 "@ inst_ram(116) $end
$var reg 32 "A inst_ram(117) $end
$var reg 32 "B inst_ram(118) $end
$var reg 32 "C inst_ram(119) $end
$var reg 32 "D inst_ram(120) $end
$var reg 32 "E inst_ram(121) $end
$var reg 32 "F inst_ram(122) $end
$var reg 32 "G inst_ram(123) $end
$var reg 32 "H inst_ram(124) $end
$var reg 32 "I inst_ram(125) $end
$var reg 32 "J inst_ram(126) $end
$var reg 32 "K inst_ram(127) $end
$upscope $end
$upscope $end
$scope module ifid $end
$var reg 64 ) ifid_reg $end
$var reg 32 ' instruction $end
$var reg 32 # pc $end
$var reg 1 " reset $end
$upscope $end
$upscope $end
$upscope $end

$enddefinitions $end
$dumpvars
b0 !
0"
b00000000000000000000000000000000 #
b00000000000000000000000000000000 $
b00000000000000000000000000000000 %
b00000000000000000000000000000000 &
b00000000000000000000000000000000 '
b0 (
b0000000000000000000000000000000000000000000000000000000000000000 )
b00000000001100010000001110110011 *
b01000000101100111000011110110011 +
b00000000111111011001010100110011 ,
b00000000101110010010100110110011 -
b00000001100101110100011000110011 .
b00000001111011010110011100110011 /
b00000001010010010111101110110011 0
b00000000001000011010010010000011 1
b00000011101101111010000010100011 2
b00000000001100001000000001100011 3
b00000000001100010000001110110011 4
b00000000001100010000001110110011 5
b00000000001100010000001110110011 6
b00000000001100010000001110110011 7
b00000000001100010000001110110011 8
b00000000001100010000001110110011 9
b00000000001100010000001110110011 :
b00000000001100010000001110110011 ;
b00000000001100010000001110110011 <
b00000000001100010000001110110011 =
b00000000001100010000001110110011 >
b00000000001100010000001110110011 ?
b00000000001100010000001110110011 @
b00000000001100010000001110110011 A
b00000000001100010000001110110011 B
b00000000001100010000001110110011 C
b00000000001100010000001110110011 D
b00000000001100010000001110110011 E
b00000000001100010000001110110011 F
b00000000001100010000001110110011 G
b00000000001100010000001110110011 H
b00000000001100010000001110110011 I
b00000000001100010000001110110011 J
b00000000001100010000001110110011 K
b00000000001100010000001110110011 L
b00000000001100010000001110110011 M
b00000000001100010000001110110011 N
b00000000001100010000001110110011 O
b00000000001100010000001110110011 P
b00000000001100010000001110110011 Q
b00000000001100010000001110110011 R
b00000000001100010000001110110011 S
b00000000001100010000001110110011 T
b00000000001100010000001110110011 U
b00000000001100010000001110110011 V
b00000000001100010000001110110011 W
b00000000001100010000001110110011 X
b00000000001100010000001110110011 Y
b00000000001100010000001110110011 Z
b00000000001100010000001110110011 [
b00000000001100010000001110110011 \
b00000000001100010000001110110011 ]
b00000000001100010000001110110011 ^
b00000000001100010000001110110011 _
b00000000001100010000001110110011 `
b00000000001100010000001110110011 a
b00000000001100010000001110110011 b
b00000000001100010000001110110011 c
b00000000001100010000001110110011 d
b00000000001100010000001110110011 e
b00000000001100010000001110110011 f
b00000000001100010000001110110011 g
b00000000001100010000001110110011 h
b00000000001100010000001110110011 i
b00000000001100010000001110110011 j
b00000000001100010000001110110011 k
b00000000001100010000001110110011 l
b00000000001100010000001110110011 m
b00000000001100010000001110110011 n
b00000000001100010000001110110011 o
b00000000001100010000001110110011 p
b00000000001100010000001110110011 q
b00000000001100010000001110110011 r
b00000000001100010000001110110011 s
b00000000001100010000001110110011 t
b00000000001100010000001110110011 u
b00000000001100010000001110110011 v
b00000000001100010000001110110011 w
b00000000001100010000001110110011 x
b00000000001100010000001110110011 y
b00000000001100010000001110110011 z
b00000000001100010000001110110011 {
b00000000001100010000001110110011 |
b00000000001100010000001110110011 }
b00000000001100010000001110110011 ~
b00000000001100010000001110110011 "!
b00000000001100010000001110110011 ""
b00000000001100010000001110110011 "#
b00000000001100010000001110110011 "$
b00000000001100010000001110110011 "%
b00000000001100010000001110110011 "&
b00000000001100010000001110110011 "'
b00000000001100010000001110110011 "(
b00000000001100010000001110110011 ")
b00000000001100010000001110110011 "*
b00000000001100010000001110110011 "+
b00000000001100010000001110110011 ",
b00000000001100010000001110110011 "-
b00000000001100010000001110110011 ".
b00000000001100010000001110110011 "/
b00000000001100010000001110110011 "0
b00000000001100010000001110110011 "1
b00000000001100010000001110110011 "2
b00000000001100010000001110110011 "3
b00000000001100010000001110110011 "4
b00000000001100010000001110110011 "5
b00000000001100010000001110110011 "6
b00000000001100010000001110110011 "7
b00000000001100010000001110110011 "8
b00000000001100010000001110110011 "9
b00000000001100010000001110110011 ":
b00000000001100010000001110110011 ";
b00000000001100010000001110110011 "<
b00000000001100010000001110110011 "=
b00000000001100010000001110110011 ">
b00000000001100010000001110110011 "?
b00000000001100010000001110110011 "@
b00000000001100010000001110110011 "A
b00000000001100010000001110110011 "B
b00000000001100010000001110110011 "C
b00000000001100010000001110110011 "D
b00000000001100010000001110110011 "E
b00000000001100010000001110110011 "F
b00000000001100010000001110110011 "G
b00000000001100010000001110110011 "H
b00000000001100010000001110110011 "I
b00000000001100010000001110110011 "J
b00000000001100010000001110110011 "K
$end
#10
b1 !
#20
b0 !
1"
b00000000001100010000001110110011 '
b0000000000000000000000000000000000000000001100010000001110110011 )
#30
b1 !
b00000000000000000000000000000001 $
b00000000000000000000000000000001 #
b0000000000000000000000000000000100000000001100010000001110110011 )
b00000000000000000000000000000001 &
b01000000101100111000011110110011 '
b0000000000000000000000000000000101000000101100111000011110110011 )
#40
b0 !
#50
b1 !
b00000000000000000000000000000010 $
b00000000000000000000000000000010 #
b0000000000000000000000000000001001000000101100111000011110110011 )
b00000000000000000000000000000010 &
b00000000111111011001010100110011 '
b0000000000000000000000000000001000000000111111011001010100110011 )
#60
b0 !
#70
b1 !
b00000000000000000000000000000011 $
b00000000000000000000000000000011 #
b0000000000000000000000000000001100000000111111011001010100110011 )
b00000000000000000000000000000011 &
b00000000101110010010100110110011 '
b0000000000000000000000000000001100000000101110010010100110110011 )
#80
b0 !
#90
b1 !
b00000000000000000000000000000100 $
b00000000000000000000000000000100 #
b0000000000000000000000000000010000000000101110010010100110110011 )
b00000000000000000000000000000100 &
b00000001100101110100011000110011 '
b0000000000000000000000000000010000000001100101110100011000110011 )
#100
b0 !
#110
b1 !
b00000000000000000000000000000101 $
b00000000000000000000000000000101 #
b0000000000000000000000000000010100000001100101110100011000110011 )
b00000000000000000000000000000101 &
b00000001111011010110011100110011 '
b0000000000000000000000000000010100000001111011010110011100110011 )
#120
b0 !
#130
b1 !
b00000000000000000000000000000110 $
b00000000000000000000000000000110 #
b0000000000000000000000000000011000000001111011010110011100110011 )
b00000000000000000000000000000110 &
b00000001010010010111101110110011 '
b0000000000000000000000000000011000000001010010010111101110110011 )
#140
b0 !
#150
b1 !
b00000000000000000000000000000111 $
b00000000000000000000000000000111 #
b0000000000000000000000000000011100000001010010010111101110110011 )
b00000000000000000000000000000111 &
b00000000001000011010010010000011 '
b0000000000000000000000000000011100000000001000011010010010000011 )
#160
b0 !
#170
b1 !
b00000000000000000000000000001000 $
b00000000000000000000000000001000 #
b0000000000000000000000000000100000000000001000011010010010000011 )
b00000000000000000000000000001000 &
b00000011101101111010000010100011 '
b0000000000000000000000000000100000000011101101111010000010100011 )
#180
b0 !
#190
b1 !
b00000000000000000000000000001001 $
b00000000000000000000000000001001 #
b0000000000000000000000000000100100000011101101111010000010100011 )
b00000000000000000000000000001001 &
b00000000001100001000000001100011 '
b0000000000000000000000000000100100000000001100001000000001100011 )
#200
b0 !
